%YAML 1.1
%TAG !u! tag:unity3d.com,2011:
--- !u!1045 &1
EditorBuildSettings:
  m_ObjectHideFlags: 0
  serializedVersion: 2
  m_Scenes:
  - enabled: 1
    path: Assets/Splash.unity
    guid: c0125d004d0204641a549a0d2609b7b1
  - enabled: 1
    path: Assets/Level 1.unity
    guid: b8094dd65ae3b7640805eda4b2c40e45
  m_configObjects: {}
